{
    "success": true,
    "data": {
        "pageCount": 3,
        "pageIndex": 0,
        "images": [
            {
                "pic": "http://s.img.mix.sina.com.cn/auto/resize?img=http%3A%2F%2Fwww.sinaimg.cn%2Fdy%2Fslidenews%2F5_img%2F2014_33%2F453_52017_861217.jpg&size=100_100",
                "title": "标题1标题1标题1标题1标题1标题1",
                "count": 17
            },
            {
                "pic": "http://s.img.mix.sina.com.cn/auto/resize?img=http%3A%2F%2Fwww.sinaimg.cn%2Fdy%2Fslidenews%2F5_img%2F2014_33%2F453_52018_200082.jpg&size=100_100",
                "title": "标题2",
                "count": 66
            },
            {
                "pic": "http://s.img.mix.sina.com.cn/auto/resize?img=http%3A%2F%2Fwww.sinaimg.cn%2Fdy%2Fslidenews%2F5_img%2F2014_33%2F453_52019_667010.jpg&size=100_100",
                "title": "标题3",
                "count": 17
            },
            {
                "pic": "http://s.img.mix.sina.com.cn/auto/resize?img=http%3A%2F%2Fwww.sinaimg.cn%2Fdy%2Fslidenews%2F5_img%2F2014_33%2F453_52020_289517.jpg&size=100_100",
                "title": "标题4",
                "count": 17
            },
            {
                "pic": "http://s.img.mix.sina.com.cn/auto/resize?img=http%3A%2F%2Fwww.sinaimg.cn%2Fdy%2Fslidenews%2F5_img%2F2014_33%2F453_52021_137108.jpg&size=100_100",
                "title": "标题5",
                "count": 17
            },
            {
                "pic": "http://s.img.mix.sina.com.cn/auto/resize?img=http%3A%2F%2Fwww.sinaimg.cn%2Fdy%2Fslidenews%2F5_img%2F2014_33%2F453_52022_888304.jpg&size=100_100",
                "title": "标题6",
                "count": 17
            },
            {
                "pic": "http://s.img.mix.sina.com.cn/auto/resize?img=http%3A%2F%2Fwww.sinaimg.cn%2Fdy%2Fslidenews%2F5_img%2F2014_33%2F453_52023_238734.jpg&size=100_100",
                "title": "标题7",
                "count": 17
            },
            {
                "pic": "http://s.img.mix.sina.com.cn/auto/resize?img=http%3A%2F%2Fwww.sinaimg.cn%2Fdy%2Fslidenews%2F5_img%2F2014_33%2F453_52024_286638.jpg&size=100_100",
                "title": "标题8",
                "count": 17
            },
            {
                "pic": "http://i0.sinaimg.cn/photo/2/2013-06-17/U9982P1505T2D2F66DT20140815121707.jpg",
                "title": "标题9",
                "count": 17
            },
            {
                "pic": "http://s.img.mix.sina.com.cn/auto/crop?img=http%3A%2F%2Fwww.sinaimg.cn%2Fdy%2Fslidenews%2F1_img%2F2014_33%2F2841_459284_796884.jpg&size=328_218",
                "title": "标题10",
                "count": 43
            }
        ]
    }


}